
[
  {
    "url": "https://github.com/atuldjadhav/DropBox-Cloud-Storage",
    "extra": {
      "owner": "atuldjadhav",
      "language_stats": {
        "CSS": 52,
        "JavaScript": 47.2,
        "HTML": 0.8
      }
    }
  }
]
